{
    "projectName": "restaurantadmin",
    "version": "3.0",
    "frontend": "javascript",
    "javascript": {
        "framework": "angular",
        "config": {
            "SourceDir": "src",
            "DistributionDir": "dist",
            "BuildCommand": "npm run-script build",
            "StartCommand": "ng serve"
        }
    },
    "providers": [
        "awscloudformation"
    ]
}